%YAML 1.1
%TAG !u! tag:unity3d.com,2011:
--- !u!1 &8162941676311565200
GameObject:
  m_ObjectHideFlags: 0
  m_CorrespondingSourceObject: {fileID: 0}
  m_PrefabInstance: {fileID: 0}
  m_PrefabAsset: {fileID: 0}
  serializedVersion: 6
  m_Component:
  - component: {fileID: 8791950715237435690}
  - component: {fileID: 5597010122140747407}
  - component: {fileID: 7658481412456575557}
  m_Layer: 0
  m_Name: PuntoInfo
  m_TagString: Untagged
  m_Icon: {fileID: 0}
  m_NavMeshLayer: 0
  m_StaticEditorFlags: 0
  m_IsActive: 1
--- !u!4 &8791950715237435690
Transform:
  m_ObjectHideFlags: 0
  m_CorrespondingSourceObject: {fileID: 0}
  m_PrefabInstance: {fileID: 0}
  m_PrefabAsset: {fileID: 0}
  m_GameObject: {fileID: 8162941676311565200}
  m_LocalRotation: {x: -0.69382787, y: 0.13639247, z: 0.13639247, w: 0.69382787}
  m_LocalPosition: {x: 326.56, y: -0.17, z: 867.74725}
  m_LocalScale: {x: 0.038894646, y: 0.038894646, z: 0.038894646}
  m_Children: []
  m_Father: {fileID: 0}
  m_RootOrder: 0
  m_LocalEulerAnglesHint: {x: 0, y: 0, z: 0}
--- !u!33 &5597010122140747407
MeshFilter:
  m_ObjectHideFlags: 0
  m_CorrespondingSourceObject: {fileID: 0}
  m_PrefabInstance: {fileID: 0}
  m_PrefabAsset: {fileID: 0}
  m_GameObject: {fileID: 8162941676311565200}
  m_Mesh: {fileID: -6558347715830034149, guid: 5c7f29e7e1cc39e4f9b8a7e8d0d59c3f, type: 3}
--- !u!23 &7658481412456575557
MeshRenderer:
  m_ObjectHideFlags: 0
  m_CorrespondingSourceObject: {fileID: 0}
  m_PrefabInstance: {fileID: 0}
  m_PrefabAsset: {fileID: 0}
  m_GameObject: {fileID: 8162941676311565200}
  m_Enabled: 1
  m_CastShadows: 1
  m_ReceiveShadows: 1
  m_DynamicOccludee: 1
  m_MotionVectors: 1
  m_LightProbeUsage: 1
  m_ReflectionProbeUsage: 1
  m_RayTracingMode: 2
  m_RayTraceProcedural: 0
  m_RenderingLayerMask: 1
  m_RendererPriority: 0
  m_Materials:
  - {fileID: 2100000, guid: ad3a30b171d884043ad95b491004f0fb, type: 2}
  - {fileID: 2100000, guid: ad3a30b171d884043ad95b491004f0fb, type: 2}
  - {fileID: 2100000, guid: ad3a30b171d884043ad95b491004f0fb, type: 2}
  - {fileID: 2100000, guid: ad3a30b171d884043ad95b491004f0fb, type: 2}
  - {fileID: 2100000, guid: ad3a30b171d884043ad95b491004f0fb, type: 2}
  - {fileID: 2100000, guid: ad3a30b171d884043ad95b491004f0fb, type: 2}
  - {fileID: 2100000, guid: ad3a30b171d884043ad95b491004f0fb, type: 2}
  - {fileID: 2100000, guid: ad3a30b171d884043ad95b491004f0fb, type: 2}
  - {fileID: 2100000, guid: ad3a30b171d884043ad95b491004f0fb, type: 2}
  m_StaticBatchInfo:
    firstSubMesh: 0
    subMeshCount: 0
  m_StaticBatchRoot: {fileID: 0}
  m_ProbeAnchor: {fileID: 0}
  m_LightProbeVolumeOverride: {fileID: 0}
  m_ScaleInLightmap: 1
  m_ReceiveGI: 1
  m_PreserveUVs: 0
  m_IgnoreNormalsForChartDetection: 0
  m_ImportantGI: 0
  m_StitchLightmapSeams: 1
  m_SelectedEditorRenderState: 3
  m_MinimumChartSize: 4
  m_AutoUVMaxDistance: 0.5
  m_AutoUVMaxAngle: 89
  m_LightmapParameters: {fileID: 0}
  m_SortingLayerID: 0
  m_SortingLayer: 0
  m_SortingOrder: 0
  m_AdditionalVertexStreams: {fileID: 0}
