%YAML 1.1
%TAG !u! tag:unity3d.com,2011:
--- !u!162 &1
EditorUserSettings:
  m_ObjectHideFlags: 0
  serializedVersion: 4
  m_ConfigSettings:
    RecentlyUsedScenePath-0:
      value: 22424703114646680e0b0227036c6c111b07142f1f2b233e2867083debf42d
      flags: 0
    RecentlyUsedScenePath-1:
      value: 224247031146466b0201001011205a5f25141d24293b690022261101e3e33176f7e93ffdfe
      flags: 0
    RecentlyUsedScenePath-2:
      value: 224247031146467604000505112e5a3217031426290e293120662e30e7ee312badd739e6eb7a1933380ffc7c263f152bfe0f471ef8021e12
      flags: 0
    RecentlyUsedScenePath-3:
      value: 22424703114646680e0b0227036c7c021313113e233b68252320092a
      flags: 0
    RecentlyUsedScenePath-4:
      value: 224247031146467604000505112e5a3217031426290e293120662e30e7ee312badc510a7f234362820
      flags: 0
    RecentlyUsedScenePath-5:
      value: 224247031146466b0201001011205a5f25141d24293b69001f67083debf42d
      flags: 0
    RecentlyUsedScenePath-6:
      value: 2242470311464678020d030f192d561a03121f25630b29332267083debf42d
      flags: 0
    RecentlyUsedScenePath-7:
      value: 22424703114646680e0b0227036c6b11141b1d382366333e243d04
      flags: 0
    RecentlyUsedScenePath-8:
      value: 22424703114646680e0b0227036c72111f19352f223d68252320092a
      flags: 0
    RecentlyUsedScenePath-9:
      value: 224247031146467604000505112e5a3c1f1a08232932277f1e2a183de7f37b14ebea26e0e2203e722c0ce6281d
      flags: 0
    vcSharedLogLevel:
      value: 0d5e400f0650
      flags: 0
  m_VCAutomaticAdd: 1
  m_VCDebugCom: 0
  m_VCDebugCmd: 0
  m_VCDebugOut: 0
  m_SemanticMergeMode: 2
  m_VCShowFailedCheckout: 1
  m_VCOverwriteFailedCheckoutAssets: 1
  m_VCProjectOverlayIcons: 1
  m_VCHierarchyOverlayIcons: 1
  m_VCOtherOverlayIcons: 1
  m_VCAllowAsyncUpdate: 1
